{
  "project_info": {
    "project_number": "1056330396214",
    "firebase_url": "https://biblioteca-82033.firebaseio.com",
    "project_id": "biblioteca-82033",
    "storage_bucket": "biblioteca-82033.appspot.com"
  },
  "client": [
    {
      "client_info": {
        "mobilesdk_app_id": "1:1056330396214:android:764d2cb7da3280eb",
        "android_client_info": {
          "package_name": "io.ionic.starter"
        }
      },
      "oauth_client": [
        {
          "client_id": "1056330396214-8gsf4l7k0ajeoik4fok1l9jfb20v1k0s.apps.googleusercontent.com",
          "client_type": 3
        }
      ],
      "api_key": [
        {
          "current_key": "AIzaSyCVq8UmvXzzUCbaB4h0XMk5WOMAkuD91ak"
        }
      ],
      "services": {
        "appinvite_service": {
          "other_platform_oauth_client": [
            {
              "client_id": "1056330396214-8gsf4l7k0ajeoik4fok1l9jfb20v1k0s.apps.googleusercontent.com",
              "client_type": 3
            },
            {
              "client_id": "1056330396214-31872sta3e1bps25jgqorej40jma41mj.apps.googleusercontent.com",
              "client_type": 2,
              "ios_info": {
                "bundle_id": "io.ionic.starter"
              }
            }
          ]
        }
      }
    }
  ],
  "configuration_version": "1"
}
